{
  "project_info": {
    "project_number": "763786043057",
    "project_id": "endless-precept-134123"
  },
  "client": [
    {
      "client_info": {
        "mobilesdk_app_id": "1:763786043057:android:c6a13bd480b6e4a0",
        "android_client_info": {
          "package_name": "com.example.lenovopc.chatapp10"
        }
      },
      "oauth_client": [],
      "api_key": [
        {
          "current_key": "AIzaSyA2C_JjN3bigt8HsoFO-OI8qYu351Bc4WQ"
        }
      ],
      "services": {
        "analytics_service": {
          "status": 1
        },
        "appinvite_service": {
          "status": 1,
          "other_platform_oauth_client": []
        },
        "ads_service": {
          "status": 1
        }
      }
    }
  ],
  "configuration_version": "1"
}